IS Object: 1 MPI processes
  type: general
Number of indices in set 31
0 14
1 9
2 6
3 1
4 15
5 13
6 12
7 10
8 11
9 7
10 8
11 5
12 4
13 2
14 3
15 0
16 30
17 25
18 27
19 20
20 21
21 18
22 29
23 26
24 28
25 24
26 23
27 19
28 22
29 17
30 16
Mat Object: 1 MPI processes
  type: seqaij
row 0: (0, 0)  (6, 0)  (8, 0) 
row 1: (1, 0)  (7, 0)  (8, 0)  (10, 0)  (12, 0) 
row 2: (2, 0)  (6, 0)  (7, 0)  (9, 0) 
row 3: (3, 0)  (11, 0)  (12, 0)  (14, 0) 
row 4: (4, 0)  (9, 0)  (10, 0)  (11, 0)  (13, 0) 
row 5: (5, 0)  (13, 0)  (14, 0) 
row 6: (0, 0)  (2, 0)  (6, 0)  (7, 0)  (8, 0) 
row 7: (1, 0)  (2, 0)  (6, 0)  (7, 0)  (8, 0)  (9, 0)  (10, 0) 
row 8: (0, 0)  (1, 0)  (6, 0)  (7, 0)  (8, 0) 
row 9: (2, 0)  (4, 0)  (7, 0)  (9, 0)  (10, 0) 
row 10: (1, 0)  (4, 0)  (7, 0)  (9, 0)  (10, 0)  (11, 0)  (12, 0) 
row 11: (3, 0)  (4, 0)  (10, 0)  (11, 0)  (12, 0)  (13, 0)  (14, 0) 
row 12: (1, 0)  (3, 0)  (10, 0)  (11, 0)  (12, 0) 
row 13: (4, 0)  (5, 0)  (11, 0)  (13, 0)  (14, 0) 
row 14: (3, 0)  (5, 0)  (11, 0)  (13, 0)  (14, 0) 
Mat Object: 1 MPI processes
  type: seqaij
row 0: (0, 0)  (1, 0)  (2, 0)  (3, 0)  (4, 0) 
row 1: (0, 0)  (1, 0)  (2, 0)  (3, 0)  (5, 0) 
row 2: (0, 0)  (1, 0)  (2, 0) 
row 3: (0, 0)  (1, 0)  (3, 0)  (4, 0)  (5, 0)  (6, 0)  (7, 0) 
row 4: (0, 0)  (3, 0)  (4, 0)  (6, 0) 
row 5: (1, 0)  (3, 0)  (5, 0)  (7, 0)  (8, 0) 
row 6: (3, 0)  (4, 0)  (6, 0)  (7, 0)  (9, 0) 
row 7: (3, 0)  (5, 0)  (6, 0)  (7, 0)  (8, 0)  (9, 0)  (10, 0) 
row 8: (5, 0)  (7, 0)  (8, 0)  (10, 0)  (11, 0) 
row 9: (6, 0)  (7, 0)  (9, 0)  (10, 0)  (12, 0) 
row 10: (7, 0)  (8, 0)  (9, 0)  (10, 0)  (11, 0)  (12, 0)  (13, 0) 
row 11: (8, 0)  (10, 0)  (11, 0)  (13, 0) 
row 12: (9, 0)  (10, 0)  (12, 0)  (13, 0)  (14, 0) 
row 13: (10, 0)  (11, 0)  (12, 0)  (13, 0)  (14, 0) 
row 14: (12, 0)  (13, 0)  (14, 0)